20065000
20065010
20065020
20065030
20065040
20065050
20065060
20065070
20065080
20065090
20065100
20065110
20065120
20065130
20065140
20065150
20065160
20065170
20065180
20065190
20065200
20065210
20065220
20065230
20065240
20065250
20065260
20065270
20065280
20065290
20065300
20065310
20065320
20065330
20065340
20065350
20065360
20065370
20065380
20065390
20065400
20065410
20065420
20065430
20065440
20065450
20065460
20065470
20065480
20065490
20065500
20065510
20065520
20065530
20065540
20065550
20065560
20065570
20065580
20065590
20065600
20065610
20065620
20065630
20065640
20065650
20065660
20065670
20065680
20065690
20065700
20065710
20065720
20065730
20065740
20065750
20065760
20065770
20065780
20065790
20065800
20065810
20065820
20065830
20065840
20065850
20065860
20065870
20065880
20065890
20065900
20065910
20065920
20065930
20065940
20065950
20065960
20065970
20065980
20065990
20066000
20066010
20066020
20066030
20066040
20066050
20066060
20066070
20066080
20066090
20066100
20066110
20066120
20066130
20066140
20066150
20066160
20066170
20066180
20066190
20066200
20066210
20066220
20066230
20066240
20066250
20066260
20066270
20066280
20066290
20066300
20066310
20066320
20066330
20066340
20066350
20066360
20066370
20066380
20066390
20066400
20066410
20066420
20066430
20066440
20066450
20066460
20066470
20066480
20066490
20066500
20066510
20066520
20066530
20066540
20066550
20066560
20066570
20066580
20066590
20066600
20066610
20066620
20066630
20066640
20066650
20066660
20066670
20066680
20066690
20066700
20066710
20066720
20066730
20066740
20066750
20066760
20066770
20066780
20066790
20066800
20066810
20066820
20066830
20066840
20066850
20066860
20066870
20066880
20066890
20066900
20066910
20066920
20066930
20066940
20066950
20066960
20066970
20066980
20066990
20067000
20067010
20067020
20067030
20067040
20067050
20067060
20067070
20067080
20067090
20067100
20067110
20067120
20067130
20067140
20067150
20067160
20067170
20067180
20067190
20067200
20067210
20067220
20067230
20067240
20067250
20067260
20067270
20067280
20067290
20067300
20067310
20067320
20067330
20067340
20067350
20067360
20067370
20067380
20067390
20067400
20067410
20067420
20067430
20067440
20067450
20067460
20067470
20067480
20067490
20067500
20067510
20067520
20067530
20067540
20067550
20067560
20067570
20067580
20067590
20067600
20067610
20067620
20067630
20067640
20067650
20067660
20067670
20067680
20067690
20067700
20067710
20067720
20067730
20067740
20067750
20067760
20067770
20067780
20067790
20067800
20067810
20067820
20067830
20067840
20067850
20067860
20067870
20067880
20067890
20067900
20067910
20067920
20067930
20067940
20067950
20067960
20067970
20067980
20067990
20068000
20068010
20068020
20068030
20068040
20068050
20068060
20068070
20068080
20068090
20068100
20068110
20068120
20068130
20068140
20068150
20068160
20068170
20068180
20068190
20068200
20068210
20068220
20068230
20068240
20068250
20068260
20068270
20068280
20068290
20068300
20068310
20068320
20068330
20068340
20068350
20068360
20068370
20068380
20068390
20068400
20068410
20068420
20068430
20068440
20068450
20068460
20068470
20068480
20068490
20068500
20068510
20068520
20068530
20068540
20068550
20068560
20068570
20068580
20068590
20068600
20068610
20068620
20068630
20068640
20068650
20068660
20068670
20068680
20068690
20068700
20068710
20068720
20068730
20068740
20068750
20068760
20068770
20068780
20068790
20068800
20068810
20068820
20068830
20068840
20068850
20068860
20068870
20068880
20068890
20068900
20068910
20068920
20068930
20068940
20068950
20068960
20068970
20068980
20068990
20069000
20069010
20069020
20069030
20069040
20069050
20069060
20069070
20069080
20069090
20069100
20069110
20069120
20069130
20069140
20069150
20069160
20069170
20069180
20069190
20069200
20069210
20069220
20069230
20069240
20069250
20069260
20069270
20069280
20069290
20069300
20069310
20069320
20069330
20069340
20069350
20069360
20069370
20069380
20069390
20069400
20069410
20069420
20069430
20069440
20069450
20069460
20069470
20069480
20069490
20069500
20069510
20069520
20069530
20069540
20069550
20069560
20069570
20069580
20069590
20069600
20069610
20069620
20069630
20069640
20069650
20069660
20069670
20069680
20069690
20069700
20069710
20069720
20069730
20069740
20069750
20069760
20069770
20069780
20069790
20069800
20069810
20069820
20069830
20069840
20069850
20069860
20069870
20069880
20069890
20069900
20069910
20069920
20069930
20069940
20069950
20069960
20069970
20069980
20069990
